<svg xmlns="http://www.w3.org/2000/svg" width="25.256" height="25.256" viewBox="0 0 25.256 25.256">
  <g id="Group_65" data-name="Group 65" transform="translate(-144.249 -420.116)">
    <path id="Path_49" data-name="Path 49" d="M148.446,420.119a12.891,12.891,0,0,0,.511,1.193c.17.4.358.791.531,1.189.045.1.1.157.219.141a1.01,1.01,0,0,1,.148,0H168.08a1.88,1.88,0,0,1,.655.088,1.167,1.167,0,0,1,.537,1.794,1.965,1.965,0,0,0-.138.232c-1.454,2.624-2.921,5.242-4.354,7.879a2.466,2.466,0,0,1-2.362,1.38c-2.2-.006-4.389,0-6.585,0-.806,0-1.611,0-2.417,0a.286.286,0,0,0-.3.185c-.306.6-.625,1.19-.938,1.784-.2.37-.083.56.331.56q7.09,0,14.18-.006c.256,0,.308.067.3.309-.018.674-.013,1.349,0,2.022,0,.165-.048.2-.206.2-4.981,0-9.963,0-14.944-.006a2.53,2.53,0,0,1-2.437-3.245,3.309,3.309,0,0,1,.376-.928c.484-.809.95-1.629,1.431-2.44a.373.373,0,0,0,.025-.4q-2.188-4.594-4.358-9.2a.305.305,0,0,0-.33-.207c-.765.007-1.53,0-2.293,0,0-.787,0-1.573,0-2.359,0-.144.037-.161.167-.16C145.759,420.121,147.1,420.119,148.446,420.119Z" transform="translate(0 0)" fill="#002856"/>
    <path id="Path_50" data-name="Path 50" d="M152.333,442.341a2.523,2.523,0,1,1-2.526,2.523A2.534,2.534,0,0,1,152.333,442.341Z" transform="translate(-0.504 -2.015)" fill="#002856"/>
    <path id="Path_51" data-name="Path 51" d="M166.22,442.341a2.523,2.523,0,1,1-2.528,2.521A2.535,2.535,0,0,1,166.22,442.341Z" transform="translate(-1.763 -2.015)" fill="#002856"/>
  </g>
</svg>
