<svg xmlns="http://www.w3.org/2000/svg" width="28.559" height="28.558" viewBox="0 0 28.559 28.558">
  <g id="Group_63" data-name="Group 63" transform="translate(-142.074 -223.788)">
    <g id="b103_soup" data-name="b103 soup" transform="translate(142.074 223.788)">
      <path id="Path_43" data-name="Path 43" d="M164.476,235.665h-6.1a1,1,0,1,0,0-2h-2.495a1,1,0,1,0,0,2h-6.1a3.69,3.69,0,0,0-3.376,3.141h21.45A3.693,3.693,0,0,0,164.476,235.665Z" transform="translate(-142.773 -225.382)" fill="#002856"/>
      <path id="Path_44" data-name="Path 44" d="M167.2,241.784V241.5H142.074v1.428h3.58v8.85a3.426,3.426,0,0,0,3.427,3.428h14.7a3.426,3.426,0,0,0,3.428-3.428v-8.564h3.428v-1.428Z" transform="translate(-142.074 -226.646)" fill="#002856"/>
      <path id="Path_45" data-name="Path 45" d="M153.316,227.22a4.745,4.745,0,0,0,.317.377l.276.277c.175.176.338.352.468.51a2.382,2.382,0,0,1,.158.217.328.328,0,0,1-.026.463,1.738,1.738,0,0,1-.314.3,1.014,1.014,0,0,0,.49.057.867.867,0,0,0,.526-.265,1.044,1.044,0,0,0,.26-.628,1.748,1.748,0,0,0-.067-.595,3.141,3.141,0,0,0-.442-.907c-.088-.129-.2-.261-.276-.362s-.15-.185-.216-.278a2.672,2.672,0,0,1-.524-1.1,2.757,2.757,0,0,1,.249-1.494,1.843,1.843,0,0,0-1.363,1.385,2.217,2.217,0,0,0,.026,1.1A2.983,2.983,0,0,0,153.316,227.22Z" transform="translate(-143.801 -223.788)" fill="#002856"/>
      <path id="Path_46" data-name="Path 46" d="M158.094,227.22c.1.132.206.258.317.377l.275.277c.175.176.337.352.47.51.062.08.116.155.156.217a.386.386,0,0,1,.08.181.42.42,0,0,1-.106.282,1.669,1.669,0,0,1-.315.3,1.023,1.023,0,0,0,.491.057.865.865,0,0,0,.526-.265,1.039,1.039,0,0,0,.261-.628,1.748,1.748,0,0,0-.067-.595,3.166,3.166,0,0,0-.444-.907c-.087-.129-.2-.261-.275-.362s-.15-.185-.214-.278a2.666,2.666,0,0,1-.526-1.1,2.757,2.757,0,0,1,.247-1.492,1.84,1.84,0,0,0-1.36,1.385,2.217,2.217,0,0,0,.025,1.1A2.975,2.975,0,0,0,158.094,227.22Z" transform="translate(-144.572 -223.788)" fill="#002856"/>
      <path id="Path_47" data-name="Path 47" d="M162.962,227.22a4.745,4.745,0,0,0,.316.377l.277.277c.174.176.336.352.467.51a2.587,2.587,0,0,1,.158.217.444.444,0,0,1,.081.181.418.418,0,0,1-.107.282,1.67,1.67,0,0,1-.315.3,1.022,1.022,0,0,0,.491.057.871.871,0,0,0,.527-.265,1.037,1.037,0,0,0,.259-.628,1.726,1.726,0,0,0-.066-.595,3.12,3.12,0,0,0-.442-.907c-.088-.129-.2-.261-.276-.362s-.15-.185-.216-.278a2.659,2.659,0,0,1-.523-1.1,2.761,2.761,0,0,1,.247-1.494,1.842,1.842,0,0,0-1.361,1.385,2.227,2.227,0,0,0,.026,1.1A2.933,2.933,0,0,0,162.962,227.22Z" transform="translate(-145.357 -223.788)" fill="#002856"/>
    </g>
  </g>
</svg>
