<svg xmlns="http://www.w3.org/2000/svg" width="27" height="29" viewBox="0 0 27 29">
  <g id="polymers-equipments" transform="translate(-72 -835)">
    <line id="Line_59" data-name="Line 59" x2="6.493" transform="translate(80.441 857.725)" fill="none" stroke="#002856" stroke-width="2"/>
    <line id="Line_58" data-name="Line 58" y2="6.493" transform="translate(76.545 847.336)" fill="none" stroke="#002856" stroke-width="2"/>
    <circle id="Ellipse_29" data-name="Ellipse 29" cx="7" cy="7" r="7" transform="translate(72 835)" fill="#002856"/>
    <circle id="Ellipse_30" data-name="Ellipse 30" cx="4.5" cy="4.5" r="4.5" transform="translate(90 836)" fill="#002856"/>
    <circle id="Ellipse_31" data-name="Ellipse 31" cx="4.5" cy="4.5" r="4.5" transform="translate(72 853)" fill="#002856"/>
    <ellipse id="Ellipse_32" data-name="Ellipse 32" cx="7" cy="7.5" rx="7" ry="7.5" transform="translate(85 849)" fill="#002856"/>
    <line id="Line_56" data-name="Line 56" x2="5.194" transform="translate(85.635 840.843)" fill="none" stroke="#002856" stroke-width="2"/>
    <line id="Line_57" data-name="Line 57" y2="5.194" transform="translate(94.725 844.739)" fill="none" stroke="#002856" stroke-width="2"/>
  </g>
</svg>
