<svg xmlns="http://www.w3.org/2000/svg" width="24.798" height="24.798" viewBox="0 0 24.798 24.798">
  <g id="Group_73" data-name="Group 73" transform="translate(-144.702 -371.88)">
    <rect id="Rectangle_48" data-name="Rectangle 48" width="8.175" height="24.798" rx="1.472" transform="translate(153.133 371.88)" fill="#002856"/>
    <rect id="Rectangle_49" data-name="Rectangle 49" width="8.175" height="24.798" rx="1.196" transform="translate(144.702 388.367) rotate(-90)" fill="#002856"/>
  </g>
</svg>
