<svg xmlns="http://www.w3.org/2000/svg" width="30" height="30" viewBox="0 0 30 30">
  <g id="Middle_East_Africa" data-name="Middle East &amp; Africa" transform="translate(508 -939)">
    <g id="Group_163" data-name="Group 163" transform="translate(-503.5 942)">
      <path id="Path_557" data-name="Path 557" d="M1537.485,524.485c.008-.2-.024-.685-.159-.565-.163.144-.1.231-.175.342s-.072-.063-.191.064-.063.183-.071.263-.2,0-.143.175.032.239-.127.207-.048-.024-.151.08-.2,0-.43.167-.358.167-.223.549.255.5-.016.812.032.326-.04.669a.618.618,0,0,0,.143.621c.1.1.263.016.4-.056s.217-.036.429-.454a11.966,11.966,0,0,0,.565-1.878.316.316,0,0,0,.032-.39c-.048-.088-.016-.4.088-.223s.223.1.143-.024A.461.461,0,0,1,1537.485,524.485Z" transform="translate(-1519.989 -507.836)" fill="#00c5f4"/>
      <path id="Path_715" data-name="Path 715" d="M1456.753,559.921c-.016-.167-.143-.159-.358-.183s-.414.143-.692.294-.143.247-.247.358-.159.016-.239.167-.366.175-.589.111-.151.12-.366.366-.35.119-.342-.016a1.025,1.025,0,0,0-.115-.469c-.06-.088-.084.024-.012.271a1.352,1.352,0,0,1-.3.875c-.111.111-.366-.016-.454-.159-.057-.094-.155-.062-.265.014.038.054.07.109.095.15.045.075.173.549.209.606s.164.245.2.314a.211.211,0,0,1-.125.26c-.114.03.081.134.1.23s.024.084.066.12.084.082.155.137c.053.04.077.1.161.065a.872.872,0,0,1,.235-.1c.127-.028.159,0,.231-.036s.076-.151.255-.107.151,0,.33.052.088-.092.247-.052.119-.076.183-.064a.467.467,0,0,0,.31-.044c.2-.072.541-.561.74-.672s.207-.2.278-.366a.6.6,0,0,1,.31-.342c.132-.066.171-.419.212-.594C1456.655,560.9,1456.767,560.071,1456.753,559.921Z" transform="translate(-1444.112 -540.631)" fill="#00c5f4"/>
      <path id="Path_716" data-name="Path 716" d="M1441.626,542.528c.223-.064.111-.915.183-1.081s.175-.081.382-.105.1.088.247.1.151-.072.263-.125.135-.066,0-.1a.642.642,0,0,0-.39.024,3.643,3.643,0,0,1-.947.064,2.661,2.661,0,0,0-.668-.121c-.231.014-.732.042-.844-.074s-.135-.019-.207.053c-.045.045-.146.014-.281-.035a.709.709,0,0,0,.054.3c.052.076.159.31.271.509s.305.578.326.626a.35.35,0,0,1,.081.236c-.009.14-.078.379,0,.484s.068.376.1.492a1.669,1.669,0,0,0,.206.558.751.751,0,0,1,.105.121c.11-.076.208-.108.265-.014.087.143.342.271.454.159a1.354,1.354,0,0,0,.3-.876.513.513,0,0,1-.034-.293,1.309,1.309,0,0,0-.022-.137C1441.436,543.17,1441.4,542.591,1441.626,542.528Z" transform="translate(-1431.842 -523.54)" fill="#00c5f4"/>
      <path id="Path_717" data-name="Path 717" d="M1466.019,544.185a.381.381,0,0,0-.257-.3.924.924,0,0,1-.394-.591c-.045-.178-.1-.178-.144-.156.038.018,0,.036-.077.074-.112.053-.12.141-.263.125s-.04-.127-.247-.1-.31-.06-.382.105.04,1.017-.183,1.081-.19.642-.159.772a1.353,1.353,0,0,1,.022.137c.01-.014.026-.007.046.022a1.024,1.024,0,0,1,.115.469c-.008.135.127.263.342.016s.143-.43.366-.366.509.04.589-.111.135-.056.238-.167-.032-.207.247-.358a3.455,3.455,0,0,1,.518-.275C1466.355,544.35,1466.044,544.314,1466.019,544.185Z" transform="translate(-1454.289 -525.434)" fill="#00c5f4"/>
      <path id="Path_718" data-name="Path 718" d="M1442.206,505.019a.58.58,0,0,1-.161-.291c-.006-.042.03-.537,0-.734s.155-.191.322-.131.185-.042.179-.119.066-.376.054-.448-.185-.024-.328-.06-.215.072-.173,0a.331.331,0,0,0,0-.334c-.078-.119-.113-.131-.084-.245a.919.919,0,0,0,0-.34c-.012-.108-.191-.119-.292-.2s-.311.036-.34.1a.734.734,0,0,1-.376.191c-.179.048-.269-.37-.328-.579s-.668-.131-.877-.119a1.916,1.916,0,0,0-.293.05,3.407,3.407,0,0,0,.21.577c.066.143.06.215-.054.316s.108.3.239.591-.048.382-.245.627-.114.464-.145.579a4.282,4.282,0,0,0-.147.482,1.277,1.277,0,0,0-.006.168c.135.049.235.08.28.035.072-.072.1-.169.207-.053s.613.089.844.074a2.649,2.649,0,0,1,.668.121,3.647,3.647,0,0,0,.947-.064l.028-.01A.536.536,0,0,0,1442.206,505.019Z" transform="translate(-1431.837 -487.498)" fill="#00c5f4"/>
      <path id="Path_719" data-name="Path 719" d="M1475.384,542.794a.374.374,0,0,0-.077-.024.676.676,0,0,0-.314,0,.637.637,0,0,0,.314.1.36.36,0,0,1,.188-.017C1475.459,542.773,1475.421,542.777,1475.384,542.794Z" transform="translate(-1464.448 -525.088)" fill="#00c5f4"/>
      <path id="Path_720" data-name="Path 720" d="M1473.93,511.755a.392.392,0,0,0,0-.346c-.072-.143-.406-.233-.537-.352s-.245-.048-.358-.054-.185.036-.376.2-.024.137.006.3-.048.2-.024.37.137.227.328.2.048.1,0,.258-.149.167-.209,0-.245-.191-.292-.258-.185-.125-.2-.059-.221.054-.268,0-.143-.167-.2-.173-.143.1-.17-.024c-.016-.071-.091-.077-.171-.053.043,0,.074.013.079.042.012.072-.06.37-.054.448s-.012.179-.179.119-.352-.066-.322.131a7.327,7.327,0,0,1,0,.734.581.581,0,0,0,.161.291.442.442,0,0,1,.1.124c.01.017.019.034.028.052l.048-.014a.677.677,0,0,1,.314,0,.385.385,0,0,1,.077.023c.037-.017.075-.021.111.057.092.015.183.057.3.086.185.048.161-.084.191-.107a2.3,2.3,0,0,0,.185-.222,1.861,1.861,0,0,1,.227-.232.711.711,0,0,0,.108-.114.413.413,0,0,1,.143-.054.83.83,0,0,1,.173,0s-.03-.155-.03-.173.054-.06.072-.072.185-.054.185-.054.263-.09.346-.113a.533.533,0,0,0,.113-.042l-.048-.048s-.03-.131,0-.177a1.781,1.781,0,0,0,.132-.318C1473.984,511.958,1473.894,511.875,1473.93,511.755Z" transform="translate(-1460.78 -496.018)" fill="#00c5f4"/>
      <path id="Path_721" data-name="Path 721" d="M1482.791,537.748c.072-.1.042-.2-.036-.37s.108-.358.137-.591-.239-.227-.334-.3-.28-.119-.328-.185a.832.832,0,0,0-.173,0,.419.419,0,0,0-.143.054.711.711,0,0,1-.107.113,1.875,1.875,0,0,0-.227.232,2.267,2.267,0,0,1-.185.222c-.03.024-.006.155-.191.107-.113-.029-.2-.072-.3-.086a.574.574,0,0,1,.033.1.924.924,0,0,0,.394.591.381.381,0,0,1,.257.3c.026.129.336.164.378.375a.431.431,0,0,1,.175-.019.94.94,0,0,1,.278.048.855.855,0,0,0,.14-.226A3.811,3.811,0,0,1,1482.791,537.748Z" transform="translate(-1469.861 -519.182)" fill="#00c5f4"/>
      <path id="Path_722" data-name="Path 722" d="M1498.127,518.641c-.032.032-.08.135-.219.088s-.1.024-.163-.076-.183.024-.334.1-.143.275-.016.505a1.891,1.891,0,0,1,.2.571.326.326,0,0,1-.167.3c-.1.069.009.1.012.194s-.066-.033-.131-.1-.17-.14-.125-.266a1.222,1.222,0,0,0,.069-.409c0-.125-.12.051-.263.039s-.1-.125-.137-.14a.531.531,0,0,1-.113.042c-.083.024-.346.114-.346.114a1.889,1.889,0,0,0-.185.054c-.018.012-.072.054-.072.071s.03.173.03.173c.048.066.233.113.328.185s.364.066.334.3-.215.424-.137.591.107.275.036.37a3.816,3.816,0,0,0-.229.364.867.867,0,0,1-.14.225.151.151,0,0,1,.08.135c.014.149-.1.977.212,1.181a.357.357,0,0,1,.027-.083c.056-.1-.1-.207-.08-.263a1.538,1.538,0,0,1,.454-.271.927.927,0,0,0,.374-.255c.12-.127-.055-.183,0-.278a2.137,2.137,0,0,0-.215-.788c-.064-.135-.04-.247.024-.207s.342-.287.414-.4a.688.688,0,0,1,.31-.286,2.5,2.5,0,0,0,.756-.47c.287-.279.143-.836.1-1.051a2.426,2.426,0,0,1-.023-.527,1.863,1.863,0,0,1-.462.265C1498.254,518.637,1498.158,518.609,1498.127,518.641Z" transform="translate(-1483.798 -502.777)" fill="#00c5f4"/>
      <path id="Path_723" data-name="Path 723" d="M1502.952,514.024a.964.964,0,0,0-.4-.466,1.558,1.558,0,0,0-.247-.027.652.652,0,0,1,.288.206.391.391,0,0,1,0,.346c-.036.119.054.2-.012.388a1.8,1.8,0,0,1-.132.318c-.03.046,0,.178,0,.178l.048.048c.033.015-.007.128.137.14s.26-.164.263-.039a1.228,1.228,0,0,1-.068.409c-.045.125.06.2.125.266s.134.2.131.1-.116-.125-.012-.194a.325.325,0,0,0,.167-.3,1.893,1.893,0,0,0-.2-.571c-.127-.231-.135-.425.016-.505l.069-.04A.473.473,0,0,1,1502.952,514.024Z" transform="translate(-1489.447 -498.346)" fill="#00c5f4"/>
      <path id="Path_724" data-name="Path 724" d="M1498.094,511.083a.341.341,0,0,1,.025.145c-.011.041.166.052.333.063a1.182,1.182,0,0,1-.249-.146A.258.258,0,0,0,1498.094,511.083Z" transform="translate(-1485.589 -496.106)" fill="#00c5f4"/>
      <path id="Path_725" data-name="Path 725" d="M1514.893,420.141a3.513,3.513,0,0,0-.117.506c.006.051.1.152.167.117s.1.066.161-.049.09-.064.215.013.155-.054.364,0,.526.46.631.573-.04.185-.111.322.012.191.174.143.113.024.053.125.173.221.334.436.8.269,1.015.322-.191.281-.365.519-.268.328-.43.346a1.319,1.319,0,0,0-.441.179,2.443,2.443,0,0,0-.262.137c.123,0-.139.212-.21.376a2.737,2.737,0,0,0,0,1.057,1.448,1.448,0,0,0,.148.261.881.881,0,0,1,.19-.315c.2-.191,1.115-1.218,1.361-1.377s.326-.621.477-.883a3.027,3.027,0,0,0,.287-.907c.072-.342-.028-.545-.165-.462a1.171,1.171,0,0,1-.6.113c-.286.006-.268.2-.483.191s-.334.131-.483-.071-.161-.161-.352-.179.006-.107.149-.173-.155-.28-.346-.454-.37-.442-.615-.507-.161-.466-.221-.579c-.041-.078-.157-.113-.175-.151a.664.664,0,0,0-.2.079C1514.893,419.938,1514.937,419.986,1514.893,420.141Z" transform="translate(-1500.855 -412.542)" fill="#00c5f4"/>
      <path id="Path_726" data-name="Path 726" d="M1504.766,430.839c-.064.064-.191.1-.239.231s.1.163-.024.191a.183.183,0,0,0-.123.247c.032.084-.079.052-.048.211s.084.211-.071.255-.366.131-.219.2.424.2.472.3,0,.227.109.31.223.04.215.159c0,.036-.008.1-.012.181.072,0,.145.009.213.012.322.012.334.185.6.257s.269-.042.341-.114.178.054.393.006a.213.213,0,0,1,.043-.006,2.452,2.452,0,0,1,.262-.137,1.319,1.319,0,0,1,.442-.179c.161-.018.257-.107.43-.346s.579-.466.364-.519-.853-.107-1.015-.322-.394-.334-.334-.436.108-.173-.054-.125-.245-.006-.173-.143.216-.209.111-.322-.422-.519-.631-.573-.238.078-.364,0-.155-.128-.215-.013-.09.013-.161.049a.093.093,0,0,1-.1-.016,1.373,1.373,0,0,0-.072.3A.579.579,0,0,1,1504.766,430.839Z" transform="translate(-1490.986 -421.99)" fill="#00c5f4"/>
      <path id="Path_727" data-name="Path 727" d="M1473.926,400.476c-.083.131-.111.12-.3.084s-2.087-.024-2.087-.024v.585h-.25v1.29s-.215,0-.215.06a.259.259,0,0,1-.083.191.175.175,0,0,0-.06.167c.012.048.066.1,0,.119s-.069.107-.069.179-.107.191,0,.2.108.083.108.167a.439.439,0,0,0,.072.191.276.276,0,0,0,.048.179,1.055,1.055,0,0,1,.167.3c.024.1-.143.084.024.1a.319.319,0,0,0,.31-.119c.048-.072.083-.191.179-.131s.227.2.358.2.25-.033.322.049.141-.025.286-.049.156-.287.24-.191.2.215.322.12.275-.263.239-.394-.048-.155.036-.227.167-.143.167-.024-.012.418.048.442.066.336.179.373c-.013-.126.082-.1.052-.182a.182.182,0,0,1,.124-.247c.127-.028-.024-.064.024-.191s.175-.167.238-.231a.58.58,0,0,0,.141-.342,1.373,1.373,0,0,1,.072-.3.178.178,0,0,1-.072-.1,3.523,3.523,0,0,1,.118-.506c.044-.155,0-.2.155-.29a.66.66,0,0,1,.2-.079c-.008-.017,0-.035.055-.058.161-.072-.3-.245-.4-.406s-.006-.334.012-.543-.155-.286-.275-.471a1.259,1.259,0,0,0-.149-.184A1.736,1.736,0,0,0,1473.926,400.476Z" transform="translate(-1460.621 -394.612)" fill="#00c5f4"/>
      <path id="Path_728" data-name="Path 728" d="M1475.263,439.373c-.008.088.147.2.306.362s.219.131.271.279.155.044.2.181.012.161.113.2.137.048.149.161a.615.615,0,0,0,.209.31c.089.089.31-.012.406-.039s.107.069.209.17.191.159.3.13a1.388,1.388,0,0,1,.406-.059c.087,0,.155-.073.237-.119-.053-.14.2-.13.463-.114,0-.078.009-.145.011-.181.008-.119-.1-.076-.215-.159s-.06-.207-.109-.31-.325-.235-.472-.3.063-.155.219-.2.1-.1.072-.255a.266.266,0,0,1,0-.029c-.113-.037-.129-.353-.178-.373s-.048-.322-.048-.442-.084-.048-.167.024-.072.1-.036.227-.119.3-.239.394-.239-.024-.322-.12-.1.167-.24.191-.214.131-.286.049-.191-.049-.322-.049-.262-.143-.358-.2-.131.06-.179.131a.319.319,0,0,1-.311.119c-.106-.008-.078-.006-.049-.027C1475.281,439.328,1475.266,439.338,1475.263,439.373Z" transform="translate(-1464.695 -429.705)" fill="#00c5f4"/>
      <path id="Path_729" data-name="Path 729" d="M1444.856,463.337c-.143-.032-.191-.108-.334-.094s-.149.106-.3.1-.189.1-.288.1-.083-.186-.195,0-.175.19-.334.079a1.612,1.612,0,0,0-.436-.207c-.137-.048-.312.236-.28.436a2,2,0,0,1-.086.58,1.19,1.19,0,0,1-.2.671c-.175.207-.382.334-.4.557s-.016.318-.175.462-.255.239-.3.159-.141-.054-.229.029-.162-.19-.268.313a.393.393,0,0,0,.007.048,1.9,1.9,0,0,1,.293-.05c.209-.012.818-.09.877.119s.149.627.328.579a.736.736,0,0,0,.376-.191c.03-.06.239-.179.34-.1s.28.1.292.2a.932.932,0,0,1,0,.34c-.03.113.006.125.083.245a.331.331,0,0,1,0,.334c-.042.072.03-.036.173,0a1.4,1.4,0,0,0,.25.018c.081-.023.155-.018.171.053.027.119.116.018.17.024s.149.119.2.173.257.066.269,0,.149-.007.2.059.233.09.292.258.161.155.209,0,.191-.282,0-.258-.3-.029-.328-.2.054-.2.024-.37-.2-.137-.006-.3.263-.209.376-.2a1.107,1.107,0,0,1,.25-.008,1.234,1.234,0,0,0-.208-.392c-.143-.167-.132-.442-.179-.621s.161-.209.205-.253a1.89,1.89,0,0,0,.235-.314c.052-.1-.1-.108-.114-.2s.114-.056.122-.115-.132-.2-.121-.255a.579.579,0,0,0-.11.046c-.146.077-.109-.012-.125-.167a1.194,1.194,0,0,1,.125-.507c.044-.078.237-.161.291-.3s-.084-.125-.078-.209a.346.346,0,0,0-.089-.27,2.935,2.935,0,0,1-.233-.3c-.1.027-.316.128-.406.039a1.419,1.419,0,0,1-.137-.151A.864.864,0,0,1,1444.856,463.337Z" transform="translate(-1433.369 -452.323)" fill="#00c5f4"/>
      <path id="Path_730" data-name="Path 730" d="M1433.219,473.59a.2.2,0,0,1-.166.018.892.892,0,0,0-.229-.039.441.441,0,0,1-.051.168.281.281,0,0,0-.015.174l.462.008Z" transform="translate(-1425.791 -461.774)" fill="#00c5f4"/>
      <path id="Path_731" data-name="Path 731" d="M1439.578,468.984s0-.01,0-.015a.587.587,0,0,0-.3.008c-.262.065-.088.526-.326.495a6.059,6.059,0,0,0-.7-.111.316.316,0,0,1-.105-.01c-.064.163-.1.317.016.3.173-.02.376.046.34.142s-.2.107-.149.248.169.206.154.337-.076.334-.124.346-.125-.072-.155,0-.1.012-.143-.048-.054-.1-.084-.012-.083.113-.143.092a.072.072,0,0,0-.078.117c.054.072.162.245.036.233a.266.266,0,0,0-.183.067,1.1,1.1,0,0,1,.126.175,1.008,1.008,0,0,1,.161.391s0,.009,0,.014c.106-.5.189-.24.268-.313s.182-.108.229-.029.143-.016.3-.159.159-.239.175-.462.223-.35.4-.557a1.2,1.2,0,0,0,.2-.671A2,2,0,0,0,1439.578,468.984Z" transform="translate(-1430.256 -457.551)" fill="#00c5f4"/>
      <path id="Path_732" data-name="Path 732" d="M1431.424,474.775c.125.012.018-.161-.036-.233a.072.072,0,0,1,.078-.117c.06.021.113,0,.144-.092s.042-.048.084.012.113.119.142.048.108.012.155,0,.108-.215.123-.346-.105-.2-.153-.337.113-.152.149-.248-.167-.161-.34-.141c-.118.013-.081-.141-.016-.3-.114-.025-.256-.081-.332-.046-.043.02-.086.044-.128.062l0,.328-.462-.008a.375.375,0,0,1,.006.1c-.012.048.036.078.094.134s-.142.221-.235.3-.042.137.03.2.081.081.057.173.113.17.148.227c.023.039.186.212.308.36A.266.266,0,0,1,1431.424,474.775Z" transform="translate(-1423.866 -461.217)" fill="#00c5f4"/>
      <path id="Path_733" data-name="Path 733" d="M1431.071,438.215c-.048-.151-.111-.127-.167-.19s-.008-.208-.054-.335.006-.135.1-.215a.879.879,0,0,0,.176-.5c.018-.183-.375-.279-.384-.462s.183-.064.334-.064-.1-.223-.072-.406a.661.661,0,0,0-.156-.454c-.084-.127-.163-.151-.155-.112a2.2,2.2,0,0,1,.153.374c.018.127-.089.12-.193.183s-.437,1.05-.536,1.2-.109.263-.147.191-.169-.2-.249-.127a1.184,1.184,0,0,0-.344.446.724.724,0,0,1-.117.238.185.185,0,0,1,.117.176c-.011.051.158,0,.208.054a.645.645,0,0,1,.054.322,1.132,1.132,0,0,1-.012.158.89.89,0,0,1,.229.039c.087.04.191-.032.294-.08s.326.072.438.056a6.051,6.051,0,0,1,.7.111h0c0-.068,0-.141,0-.223C1431.294,438.461,1431.119,438.366,1431.071,438.215Z" transform="translate(-1422.6 -426.899)" fill="#00c5f4"/>
      <path id="Path_734" data-name="Path 734" d="M1449.557,442.735a1.4,1.4,0,0,1-.453.257.326.326,0,0,0-.231.213c-.056.119-.366.114-.4.148s-.084.11-.135.047-.012-.066-.175.025a.576.576,0,0,1-.156.063.623.623,0,0,1-.146.314c-.1.08-.148.088-.1.215s0,.272.054.335.12.039.167.19.223.247.223.382c0,.082,0,.155,0,.223.234.027.062-.43.323-.495a.587.587,0,0,1,.3-.008c-.021-.2.148-.467.282-.421a1.614,1.614,0,0,1,.436.207c.159.111.223.111.334-.079s.1,0,.195,0,.139-.108.288-.1.154-.086.3-.1.191.062.334.094a.869.869,0,0,0,.2,0,.334.334,0,0,1-.072-.159c-.012-.113-.048-.119-.149-.161s-.066-.066-.113-.2-.151-.034-.2-.181-.112-.111-.271-.279-.314-.275-.307-.362c0-.035.018-.045.039-.047a.06.06,0,0,0,.025-.068,1.057,1.057,0,0,0-.167-.3.259.259,0,0,1-.044-.107.233.233,0,0,0-.128.076C1449.661,442.576,1449.692,442.608,1449.557,442.735Z" transform="translate(-1439.51 -433.226)" fill="#00c5f4"/>
      <path id="Path_735" data-name="Path 735" d="M1444.608,399.627a1.428,1.428,0,0,0,.1.43.977.977,0,0,1,.125.442.57.57,0,0,0-.089.281c-.018.143.083.478-.024.645s-.536.519-.528.668a1.132,1.132,0,0,0,.185.423c.027.005.08.043.135.128a.658.658,0,0,1,.156.454c-.024.183.223.406.072.406s-.342-.119-.334.064.4.279.384.462a1.524,1.524,0,0,1-.031.188.576.576,0,0,0,.157-.063c.163-.091.124-.089.175-.025s.1-.012.135-.047.342-.029.4-.148a.326.326,0,0,1,.231-.213,1.4,1.4,0,0,0,.454-.257c.135-.127.1-.159.247-.286a.232.232,0,0,1,.127-.076.281.281,0,0,1,0-.072.439.439,0,0,1-.072-.191c0-.084,0-.155-.107-.167s0-.131,0-.2,0-.155.069-.179.015-.072,0-.119a.176.176,0,0,1,.06-.167.259.259,0,0,0,.084-.191c0-.06.215-.06.215-.06v-1.16l-1.97-1.132Z" transform="translate(-1436.256 -393.954)" fill="#00c5f4"/>
      <path id="Path_736" data-name="Path 736" d="M1413.931,433.332c-.215-.032-.31-.064-.454.016s-.263.159-.375.046-.15-.046-.293,0a.752.752,0,0,1-.486-.118c-.183-.079-.469.135-.571.263s-.017.406,0,.645-.088.279-.215.469c-.109.163-.044.487-.012.752a.646.646,0,0,0,.094-.034.36.36,0,0,1,.21.021c.05.018.3.185.37.227s-.027.176,0,.245a.224.224,0,0,0,.233.113c.074-.03.1-.092.155-.061a.671.671,0,0,0,.358,0,.08.08,0,0,1,.042,0,.73.73,0,0,0,.117-.238,1.183,1.183,0,0,1,.344-.446c.08-.072.211.056.249.127s.048-.04.146-.191.432-1.138.536-1.2.21-.056.193-.183a2.2,2.2,0,0,0-.153-.374c0-.013.005-.019.019-.016-.036-.059-.075-.126-.109-.193A.645.645,0,0,1,1413.931,433.332Z" transform="translate(-1406.32 -424.833)" fill="#00c5f4"/>
      <path id="Path_737" data-name="Path 737" d="M1406.614,438.212c-.036.113-.28.131-.352.191s.107.49.174.615-.012.358,0,.458-.057.121-.033.174a.9.9,0,0,1,.026.186.43.43,0,0,1,.183-.036.449.449,0,0,0,.123-.014c-.031-.265-.1-.589.012-.752.127-.191.231-.231.215-.469-.01-.147-.045-.31-.048-.443a.894.894,0,0,1-.117-.087C1406.65,437.9,1406.65,438.1,1406.614,438.212Z" transform="translate(-1401.534 -429.214)" fill="#00c5f4"/>
      <path id="Path_738" data-name="Path 738" d="M1403.288,443.064c.066.137-.024.352.036.442a1.131,1.131,0,0,1,.048.567.415.415,0,0,0,.058.265.58.58,0,0,0,.128-.054.573.573,0,0,1,.089-.049.919.919,0,0,0-.026-.186c-.024-.054.048-.074.033-.174s.064-.333,0-.458a1.467,1.467,0,0,1-.184-.6l-.264-.022A1.014,1.014,0,0,0,1403.288,443.064Z" transform="translate(-1398.751 -433.612)" fill="#00c5f4"/>
      <path id="Path_739" data-name="Path 739" d="M1393.135,442.708c-.107,0-.223.048-.211.135a1.55,1.55,0,0,1,.06.251.812.812,0,0,0,.044.291c.036.08.024.111-.032.211a1.465,1.465,0,0,0-.187.47c.01.07.165.3.224.447.082.024.163.073.2.026a1.95,1.95,0,0,1,.346-.175,3.12,3.12,0,0,1,.339-.113.415.415,0,0,1-.059-.265,1.132,1.132,0,0,0-.048-.567c-.06-.09.03-.3-.036-.442a1.014,1.014,0,0,1-.083-.269A5.2,5.2,0,0,0,1393.135,442.708Z" transform="translate(-1389.236 -433.526)" fill="#00c5f4"/>
      <path id="Path_740" data-name="Path 740" d="M1377.963,444.586c-.1.048-.1.06-.179-.076s-.075-.111-.183-.115-.1.048-.171-.028-.04-.036-.1.028-.108.091-.221.032-.141.076-.185.115.064.131.1.207.052.227-.052.218,0,.128-.036.208-.068.191-.112.314.008.072.04.1.167.072.215.15a.245.245,0,0,1-.016.24.52.52,0,0,0-.022.188,1.028,1.028,0,0,0,.478-.169,1.383,1.383,0,0,1,.865,0h.005c-.059-.144-.215-.378-.224-.447a1.466,1.466,0,0,1,.187-.47c.056-.1.068-.131.032-.211a.524.524,0,0,1-.037-.184.61.61,0,0,0-.042-.051A.331.331,0,0,0,1377.963,444.586Z" transform="translate(-1374.598 -435.013)" fill="#00c5f4"/>
      <path id="Path_741" data-name="Path 741" d="M1368.338,452.2c-.1.066-.158-.03-.158-.128s-.033-.221-.1-.2a.718.718,0,0,0-.278.246,1.16,1.16,0,0,1-.19.225.5.5,0,0,1,.077.07,6.258,6.258,0,0,0,.728.585.386.386,0,0,0,.208.073.529.529,0,0,1,.022-.188.244.244,0,0,0,.016-.24c-.048-.078-.183-.122-.215-.15s-.083.024-.04-.1c.029-.081.052-.157.075-.222A.179.179,0,0,0,1368.338,452.2Z" transform="translate(-1366.183 -441.916)" fill="#00c5f4"/>
      <path id="Path_742" data-name="Path 742" d="M1363.551,446.664a.607.607,0,0,0-.209-.445c-.141-.107-.209.039-.3.119a.99.99,0,0,0-.179.184,1.846,1.846,0,0,1,.074.273c.028.132.212.248.329.341a1.171,1.171,0,0,0,.19-.225.6.6,0,0,1,.125-.144A.159.159,0,0,1,1363.551,446.664Z" transform="translate(-1361.829 -436.711)" fill="#00c5f4"/>
      <path id="Path_743" data-name="Path 743" d="M1358.8,437.865c-.084-.048-.137-.036-.1-.074s.066-.117,0-.147-.006-.167-.072-.253-.071.139-.161.151-.089-.066-.2-.018-.156.042-.251-.06-.334-.1-.418-.125-.209.137-.167.209-.071.1-.179.149c-.07.035-.133.068-.2.1.131.153.272.33.351.4a.568.568,0,0,1,.14.223,1,1,0,0,1,.179-.184c.1-.081.164-.227.3-.119a.607.607,0,0,1,.209.444.159.159,0,0,0,.027.1.507.507,0,0,1,.152-.1c.063-.016.1.106.1.2s.06.194.158.129a.179.179,0,0,1,.151-.033c.012-.034.024-.065.036-.092.036-.079-.068-.216.036-.208s.092-.143.051-.218-.147-.167-.1-.207a.188.188,0,0,0,.028-.037C1358.793,438.006,1358.886,437.913,1358.8,437.865Z" transform="translate(-1356.527 -428.617)" fill="#00c5f4"/>
      <path id="Path_744" data-name="Path 744" d="M1352.052,423.788c-.107-.114.012-.167,0-.323s-.292-.251-.28-.358-.221-.185-.346-.263c-.1-.06-.312,0-.512.085-.048.159-.075.374-.14.429-.092.076-.076.1.048.231s.382.12.625.159-.2.187-.358.195-.265-.066-.283,0,.084.239.227.346a1.744,1.744,0,0,1,.222.23c.063-.037.126-.07.2-.1.108-.054.221-.077.179-.149s.083-.239.167-.209.322.024.418.125l.019.019A.592.592,0,0,0,1352.052,423.788Z" transform="translate(-1350.715 -415.333)" fill="#00c5f4"/>
      <path id="Path_745" data-name="Path 745" d="M1353.721,389.745c.012-.09.054-.257.131-.185s.054.143.131.083.311.012.376-.048.137-.072.334-.078.716,0,.716,0-.058-.328-.092-.507-.045-.913-.051-1.044-.117-1.251-.117-1.251h.453l-.947-.669v.39h-.9s.069.653-.061.748-.2.127-.21.263,0,.366,0,.366l-1.033-.006a.589.589,0,0,0,.1.249.253.253,0,0,1-.035.328c-.065.078.1.1.142.287a.486.486,0,0,1-.089.456.393.393,0,0,0-.07.148c.2-.079.415-.145.512-.085.125.077.358.155.346.263s.266.2.28.356C1353.685,389.793,1353.717,389.772,1353.721,389.745Z" transform="translate(-1352.306 -381.678)" fill="#00c5f4"/>
      <path id="Path_746" data-name="Path 746" d="M1388.359,429.323c-.151.012-.139-.068-.111-.163s-.127-.072-.151-.119a1.227,1.227,0,0,0-.076-.2c-.04-.056,0-.2,0-.2a.719.719,0,0,0-.169-.024.4.4,0,0,0-.193.121.419.419,0,0,1-.316.129c-.073-.028-.1.145-.188.208s-.092.122-.188.09-.1.1-.1.19a.228.228,0,0,1-.173.189c-.081.018-.129.042-.09.1s-.015.116-.06.194a.283.283,0,0,0-.015.176c.068,0,.077,0,.142.115.076.135.076.123.179.076a.331.331,0,0,1,.346.052c.013.014.027.031.042.051,0-.032,0-.066-.007-.106a1.53,1.53,0,0,0-.06-.251c-.012-.088.1-.131.211-.135a5.211,5.211,0,0,1,.555,0l.264.022a.037.037,0,0,1,.011-.016c.072-.06.316-.078.352-.191a1.583,1.583,0,0,1,.05-.181A.314.314,0,0,0,1388.359,429.323Z" transform="translate(-1383.486 -420.638)" fill="#00c5f4"/>
      <path id="Path_747" data-name="Path 747" d="M1369.482,396.824c.088-.08.35,0,.525-.049a.329.329,0,0,0,.255-.324c-.008-.127,0-.748,0-.748a.865.865,0,0,1-.173,0c-.126-.008-.089-.04-.073-.127s-.08-.151-.151-.183a2.221,2.221,0,0,1-.35-.191c-.079-.064-1.56-1.273-1.56-1.273h-.453s.111,1.12.117,1.251.018.865.051,1.044.092.507.092.507-.519-.006-.716,0-.269.018-.334.078-.3-.012-.376.048-.054-.012-.131-.083-.119.1-.131.185c0,.027-.036.048-.078.063v0c.012.155-.108.209,0,.323a.594.594,0,0,1,.18.413.169.169,0,0,0,.232.041c.107-.048.107.03.2.018s.1-.237.161-.151.006.223.072.253.042.109,0,.147.012.026.1.074-.009.141.079.244c.032-.053.068-.125.157-.079.114.06.161.032.221-.032s.024-.1.1-.028.063.024.171.028h.041a.285.285,0,0,1,.015-.176c.045-.078.1-.131.06-.194s.009-.086.09-.1a.227.227,0,0,0,.173-.189c0-.089,0-.223.1-.19s.1-.027.188-.09.114-.236.188-.208a.419.419,0,0,0,.316-.129.4.4,0,0,1,.193-.121.723.723,0,0,1,.169.024A.346.346,0,0,0,1369.482,396.824Z" transform="translate(-1364.657 -388.89)" fill="#00c5f4"/>
      <path id="Path_748" data-name="Path 748" d="M1407.554,399.572c-.1-.087-.422-.326-.565-.255a8.717,8.717,0,0,0-1.027.653,4.167,4.167,0,0,1-.557.517,1.163,1.163,0,0,1-.358.135s-.008.621,0,.748a.329.329,0,0,1-.255.324c-.175.049-.438-.03-.525.049a.346.346,0,0,1-.29.072s-.04.147,0,.2a1.26,1.26,0,0,1,.076.2c.024.048.179.024.151.119s-.04.175.111.163a.313.313,0,0,1,.256.131c.023-.048.06-.064.136,0a.848.848,0,0,0,.118.087.311.311,0,0,1,.049-.2c.1-.128.388-.342.571-.263s.343.164.485.118.18-.113.293,0,.232.034.376-.046.239-.048.453-.016a.645.645,0,0,0,.4-.13.653.653,0,0,1-.076-.231c-.009-.149.42-.5.528-.668s.006-.5.024-.645a.572.572,0,0,1,.09-.281.979.979,0,0,0-.125-.442,1.428,1.428,0,0,1-.1-.43C1407.737,399.508,1407.649,399.659,1407.554,399.572Z" transform="translate(-1399.441 -393.811)" fill="#00c5f4"/>
      <path id="Path_750" data-name="Path 750" d="M1353.562,384.733a1.243,1.243,0,0,0-.165.263c-.088.123-.3.263-.346.358s-.028.259-.143.358-.26.551-.391.706a.256.256,0,0,0-.069.187l1.033.006s-.008-.231,0-.366.08-.167.21-.263.061-.748.061-.748h.9v-.39l-.016-.111Z" transform="translate(-1352.3 -380.477)" fill="#00c5f4"/>
      <path id="Path_751" data-name="Path 751" d="M1417.634,399.994a4.2,4.2,0,0,1-.557.517,1.168,1.168,0,0,1-.358.135h-.006l.948.388a11.064,11.064,0,0,0,1.055-1.633.423.423,0,0,0-.016-.072.126.126,0,0,0-.039.011A8.651,8.651,0,0,0,1417.634,399.994Z" transform="translate(-1411.112 -393.835)" fill="#00c5f4"/>
      <path id="Path_752" data-name="Path 752" d="M1383.165,355.559c-.151.032-.108-.1-.189-.207s-.224-.175-.113-.318a2.035,2.035,0,0,0,.064-.9c-.024-.135-.1-.088-.119-.342a1,1,0,0,0-.286-.637c-.2-.239-.216-.366-.076-.525a1.643,1.643,0,0,0,.15-.7.148.148,0,0,1-.066.016c-.107.006-.185-.134-.262-.072s-.2-.03-.254.036-.2.185-.256.117a.235.235,0,0,0-.17-.1,1.98,1.98,0,0,0-.374.028,2.12,2.12,0,0,0-.338.123c-.123.052-.131.048-.278.1s-.171.072-.235.1-.158.179-.27.22a1.227,1.227,0,0,1-.044.218c-.04.119.159.454.175.573s-.294.08-.5.119-.215.119-.183.2-.207.191-.342.3-.207.064-.422.143a1.059,1.059,0,0,0-.39.247.619.619,0,0,0-.151.358l.016.111.947.669s1.48,1.21,1.56,1.273a2.2,2.2,0,0,0,.35.191c.072.032.167.1.151.183,0,.01,0,.019-.006.027-.016.067-.032.093.079.1a1.03,1.03,0,0,0,.167,0h.006a1.169,1.169,0,0,0,.358-.135,4.164,4.164,0,0,0,.557-.517,8.693,8.693,0,0,1,1.027-.653.125.125,0,0,1,.039-.011C1383.434,355.72,1383.3,355.532,1383.165,355.559Z" transform="translate(-1375.896 -350.388)" fill="#00c5f4"/>
      <path id="Path_754" data-name="Path 754" d="M1436.3,367.7c-.036-.418-.036-.9-.057-.979s-.08-.179-.027-.269a.162.162,0,0,0-.018-.215c-.031-.038,0-.082.042-.126-.051-.063-.109-.072-.277-.1s-.135-.06-.282-.147-.119-.175-.41-.071-.251.123-.254.306.047.215-.06.318-.171.1-.346.048-.331-.211-.458-.227a.539.539,0,0,1-.362-.219.405.405,0,0,0-.326-.205c-.173-.03-.161-.018-.328-.054a.813.813,0,0,1-.257-.072h0a.375.375,0,0,1-.067.255c-.088.076-.33.092-.279.267s.056.207-.123.33a.476.476,0,0,0-.063.051c.031.1.077.1.095.2a2.039,2.039,0,0,1-.064.9c-.111.143.032.215.113.318s.038.239.189.207c.132-.028.268.16.318.323.156-.022.438.185.526.266s.183-.064.239-.087l.345-.167,1.97,1.132v-.129h.251v-.585C1436.334,368.839,1436.34,368.117,1436.3,367.7Z" transform="translate(-1425.416 -363.047)" fill="#00c5f4"/>
      <path id="Path_755" data-name="Path 755" d="M1480.088,370.8a.184.184,0,0,1-.107.046.626.626,0,0,1-.442,0c-.139-.076-.06-.123-.243-.076s-.374.227-.569.151a2.328,2.328,0,0,0-.732-.227c-.159.024-.167.08-.223,0l-.014-.018c-.037.043-.073.088-.042.126a.162.162,0,0,1,.018.215c-.054.09.006.185.027.269s.021.561.057.979.03,1.14.03,1.271c0,0,1.9-.012,2.087.024s.217.048.3-.084a1.728,1.728,0,0,1,.329-.3c-.046-.05-.073-.085-.06-.133a.151.151,0,0,0-.048-.167c-.036-.036-.286-.531-.459-.83a4.072,4.072,0,0,1-.34-.776c-.06-.185.334.376.412.519s.065-.143.071-.37c0-.16.071-.165.109-.136A1.575,1.575,0,0,0,1480.088,370.8Z" transform="translate(-1466.93 -367.617)" fill="#00c5f4"/>
      <path id="Path_756" data-name="Path 756" d="M1509.775,370.114a2.191,2.191,0,0,0-.7-.445,1.133,1.133,0,0,0-.756.107c-.231.091.088.183.175.29s-.087.108-.219.183-.271.251-.406.195l-.145-.06c0,.056-.077.357.024.387a2.337,2.337,0,0,1,.621.836.817.817,0,0,0,.37.442,1.074,1.074,0,0,1,.2.549.719.719,0,0,0,.215.477c.131.09.543.716.74.949a.477.477,0,0,1,.078.136c.135-.263.238-.189.378-.154a2.148,2.148,0,0,1,.5.135c.088.064.08.263.08.263a5.558,5.558,0,0,0,.509-.513c.127-.171.6-.267.8-.37s.493-.175.7-.279.191-.374.231-.517-.088-.31-.3-.35a1.7,1.7,0,0,1-.589-.183.252.252,0,0,1-.115-.143c-.139-.01-.124-.1-.156-.14s-.685-.943-.768-1.118-.234-.111-.454-.286l-.027-.024c-.043,0-.088.009-.136.016A1.293,1.293,0,0,1,1509.775,370.114Z" transform="translate(-1494.372 -366.662)" fill="#00c5f4"/>
      <path id="Path_757" data-name="Path 757" d="M1534.9,421.972c.089.012.046-.072.116-.155a.994.994,0,0,1,.391-.173.112.112,0,0,0,0-.209c-.089-.036-.147.008.105-.306,0,0,.008-.2-.079-.263a2.152,2.152,0,0,0-.5-.135c-.139-.035-.242-.109-.377.154a1.731,1.731,0,0,1,.047.67.956.956,0,0,0,.234.48C1534.839,421.992,1534.857,421.966,1534.9,421.972Z" transform="translate(-1518.956 -413.386)" fill="#00c5f4"/>
      <path id="Path_758" data-name="Path 758" d="M1539.852,415.12c-.191.1-.669.2-.8.37a5.542,5.542,0,0,1-.509.513c-.253.314-.2.271-.106.306a.112.112,0,0,1,0,.209.994.994,0,0,0-.391.173c-.069.084-.026.167-.116.155-.043-.006-.061.02-.065.062a.084.084,0,0,0,.077.021,1.16,1.16,0,0,0,.37-.233c.066-.066.215.006.4.006s.084-.077.2-.107.114-.012.179-.078a2.523,2.523,0,0,1,.675-.3c.227-.06.2-.036.215-.167a.368.368,0,0,1,.2-.269.468.468,0,0,1,.048-.026l-.321-.665C1539.887,415.1,1539.868,415.111,1539.852,415.12Z" transform="translate(-1521.989 -408.262)" fill="#00c5f4"/>
      <path id="Path_759" data-name="Path 759" d="M1561.239,390.9a.184.184,0,0,1,.048-.208.222.222,0,0,0,.079-.187c0-.048.051-.084.115-.106a3.317,3.317,0,0,0-.067-.344c-.048-.115-.33.474-.465.557a1.234,1.234,0,0,1-.533.107.44.44,0,0,1-.063,0,.252.252,0,0,0,.115.143,1.7,1.7,0,0,0,.589.183.463.463,0,0,1,.144.051A.271.271,0,0,0,1561.239,390.9Z" transform="translate(-1542.565 -385.338)" fill="#00c5f4"/>
      <path id="Path_760" data-name="Path 760" d="M1562.62,396.625c.167.012.108-.233.352-.286s.179-.239.275-.269.046-.185.078-.34,0-.223.079-.139.191-.215.326-.386-.107-.29-.215-.446-.462-.215-.565-.306a.341.341,0,0,1-.08-.177c-.065.021-.116.057-.116.106a.222.222,0,0,1-.079.187.184.184,0,0,0-.048.208.4.4,0,0,0,.12.5c-.04.143-.024.414-.231.517-.189.094-.456.162-.646.252l.321.665A.943.943,0,0,1,1562.62,396.625Z" transform="translate(-1543.954 -389.209)" fill="#00c5f4"/>
      <path id="Path_762" data-name="Path 762" d="M1520.645,352.3c.036-.114-.286-.346-.424-.364s-.185-.191-.245-.34.054-.269.1-.344-.018-.176-.119-.205-.161-.161-.227-.293-.376-.09-.46-.149-.31.173-.393.239-.025.454,0,.6-.466.322-.549.4c-.063.055.067.243.176.379a.688.688,0,0,1,.285.027,2.186,2.186,0,0,1,.7.445,1.294,1.294,0,0,0,.844.382c.049-.007.094-.013.136-.016-.161-.157.138-.217.29-.251l.062-.012c-.068-.107-.151-.237-.179-.277C1520.6,352.442,1520.609,352.412,1520.645,352.3Z" transform="translate(-1504.092 -349.234)" fill="#00c5f4"/>
      <path id="Path_764" data-name="Path 764" d="M1509.833,351.2c-.087.06-.266.123-.33.077s-.135-.089-.215,0-.227.026-.307,0-.048.147-.1.227c-.035.054-.083.1-.124.158.029.068.048.065.045.119a3.794,3.794,0,0,1-.061.507.18.18,0,0,1-.014.031,1.387,1.387,0,0,1,.148.226c.089.065.179.1.276.029a4.044,4.044,0,0,1,.876-.526c.052-.042.085-.085.079-.124-.024-.143-.082-.531,0-.6.046-.036.135-.124.221-.185A.8.8,0,0,0,1509.833,351.2Z" transform="translate(-1495.322 -349.725)" fill="#00c5f4"/>
      <path id="Path_765" data-name="Path 765" d="M1485.41,335.973c-.072-.149-.323-.5-.259-.6s.06-.175-.016-.219a.354.354,0,0,1-.189-.221c-.066-.155-.06-.286-.232-.245a1.16,1.16,0,0,1-.35.067.423.423,0,0,1-.3.156c-.131-.008-.434-.056-.434-.056a1.837,1.837,0,0,1-.37-.024c-.048-.028-.12-.052-.219-.115a.644.644,0,0,0-.2-.1.919.919,0,0,0-.358-.052.751.751,0,0,0-.278.112,2.835,2.835,0,0,1-.3.155c-.044,0-.534-.04-.406.032s.187.107-.012.167-.513-.008-.6.1-.02.084.052.159.195.275.1.338-.1.04-.016.1.143.076.108.123-.179.036-.028.108.143.056.171.087.242.147.358.222.218-.113.319-.164.134-.015.331.1a.435.435,0,0,0,.454,0c.11-.054.2-.152.281-.075s.131.042.194,0,.206,0,.093.11-.11.11-.075.221c.005.015.01.028.014.039.041-.059.089-.1.124-.158.052-.079.02-.251.1-.227s.227.087.306,0,.151-.046.215,0,.243-.018.33-.077a.8.8,0,0,1,.5-.055.23.23,0,0,1,.081.039.528.528,0,0,0,.507.008A.057.057,0,0,0,1485.41,335.973Z" transform="translate(-1469.808 -334.568)" fill="#00c5f4"/>
      <path id="Path_766" data-name="Path 766" d="M1536.347,346.182c.078-.149.257-.155.322-.221s-.03-.1-.1-.215.054-.149-.131-.245a1.414,1.414,0,0,1-.37-.334c-.059-.06-.185-.018-.083-.2s.161-.412.048-.442-.2-.376-.233-.46-.018-.137-.1-.191,0-.2.048-.293a1.06,1.06,0,0,0,.018-.453c-.018-.084-.113-.131-.269-.2a4.307,4.307,0,0,0-.406-.23c-.185-.063-.3-.182-.483-.152a1.54,1.54,0,0,0-.555.241c-.078.069,0,.278-.2.195s-.155-.042-.257.018a.363.363,0,0,1-.358-.042,4.431,4.431,0,0,0-.409-.171c-.152-.062-.14-.155-.23-.246s-.239-.091-.185-.228.145-.257-.011-.2-.168.2-.329.221a.573.573,0,0,1-.424-.155.412.412,0,0,0-.18-.118c.022.042.011.1-.033.17-.064.1.187.45.258.6a.057.057,0,0,1-.006.066.127.127,0,0,1,.044.048c.066.131.126.263.227.293s.167.13.119.205-.161.195-.1.344.108.322.245.34.46.25.424.364-.048.144,0,.215c.029.04.111.17.179.277.085-.012.058.008.041-.072-.02-.1.036-.131.111-.056s.12.072.187.028.279.354.362.479a.534.534,0,0,0,.34.275,3.263,3.263,0,0,1,.621.352c.257.137.114,0,.215-.06s.161-.161.329-.06.2.406.394.436.64.081.883.111A.427.427,0,0,1,1536.347,346.182Z" transform="translate(-1516.093 -341.434)" fill="#00c5f4"/>
      <path id="Path_791" data-name="Path 791" d="M1534.555,335.179c-.1.005-.221-.232-.317-.365-.11.08-.168.119-.284.063a1.491,1.491,0,0,1-.267-.158.09.09,0,0,0,.016.112c.088.081.146.192.041.152s-.181-.144-.28-.106l-.031.011c.084.123.173.259.194.3a2.016,2.016,0,0,0,.14.191.705.705,0,0,1,.1.242l.044,0c.161-.024.173-.161.329-.221s.065.06.011.2.1.137.185.228v0c.03-.124.082-.292.082-.337a.27.27,0,0,1,.114-.227C1534.74,335.161,1534.674,335.173,1534.555,335.179Z" transform="translate(-1517.931 -334.705)" fill="#00c5f4"/>
      <path id="Path_833" data-name="Path 833" d="M1510.117,466.233c.077-.179.382-.418.167-.37s-.321-.078-.394-.006-.078.185-.341.114-.275-.245-.6-.257-.752-.078-.674.107.2.334.239.454a.47.47,0,0,1-.066.434.573.573,0,0,0-.121.2c.089.076.184.166.281.167.19,0-.063.124-.16.25l-.041.051a1.425,1.425,0,0,0,.327.27c.293.155.442.227.459.352.014.1.169.222.385.361.044-.118.1-.038.188-.17.12-.175.072-.183.072-.31s.087-.12.278-.191a.25.25,0,0,0,.144-.139,1.433,1.433,0,0,1-.148-.261A2.723,2.723,0,0,1,1510.117,466.233Z" transform="translate(-1494.901 -454.567)" fill="#00c5f4"/>
      <path id="Path_834" data-name="Path 834" d="M1496.329,488.026c-.008-.127-.072-.159-.135-.262a.727.727,0,0,1-.12-.486c.024-.231.088-.175-.04-.334s-.111-.112-.056-.5a.952.952,0,0,1,.042-.2c-.216-.139-.371-.266-.385-.361-.018-.125-.167-.2-.46-.352a1.421,1.421,0,0,1-.327-.271c-.078.1-.139.159-.142.259,0,.117.046.159-.037.212s-.14.223-.182.117-.053-.159-.144-.085-.217.032-.19-.286c.007-.09.009-.162.008-.224a.5.5,0,0,0-.084-.015c-.125-.006-.239-.012-.287.03s.121.209.114.269-.141.028-.122.115.166.1.114.2a1.884,1.884,0,0,1-.235.314c-.044.044-.253.074-.205.253s.036.454.179.621a1.23,1.23,0,0,1,.208.392.256.256,0,0,1,.109.061,1.182,1.182,0,0,0,.249.146,1.56,1.56,0,0,1,.246.027.963.963,0,0,1,.4.465.471.471,0,0,0,.177.263c.119-.073.215-.147.265-.064.06.1.024.028.163.076s.187-.056.219-.088.127,0,.2,0a1.854,1.854,0,0,0,.462-.265C1496.33,488.041,1496.33,488.033,1496.329,488.026Z" transform="translate(-1481.34 -472.453)" fill="#00c5f4"/>
      <path id="Path_835" data-name="Path 835" d="M1495.248,466.977s.18-.122.329-.207c.072-.041.152.018.237.09a.577.577,0,0,1,.121-.2.469.469,0,0,0,.066-.434c-.042-.119-.161-.269-.239-.454l0-.005c-.082.045-.151.122-.237.119a1.389,1.389,0,0,0-.406.059c-.107.029-.2-.029-.3-.13s-.113-.2-.209-.17h0a2.93,2.93,0,0,0,.233.3.346.346,0,0,1,.09.269c-.006.084.131.072.078.209s-.247.221-.29.3a1.2,1.2,0,0,0-.126.507c.016.155-.021.244.126.167a.577.577,0,0,1,.11-.046.024.024,0,0,1,.008-.014c.047-.042.161-.036.286-.03a.5.5,0,0,1,.084.015A.664.664,0,0,1,1495.248,466.977Z" transform="translate(-1482.385 -454.518)" fill="#00c5f4"/>
    </g>
    <g id="Group_167" data-name="Group 167" transform="translate(-508 939)">
      <rect id="Rectangle_166" data-name="Rectangle 166" width="30" height="30" fill="none"/>
    </g>
  </g>
</svg>
